{
  "femgen model": 

      {
          "__name__": "DRFoundationHierarchical",

          "__description__": "Mooring line segment hierarchical connection digital representation",

          "__type__": "dtosk:dr:DRFoundationHierarchical",
      
          "__properties__": [
            {"name":"part_of_station_keeping",
              "type":"dtosk:dr:TaggedString",
              "description":"parent station keeping id"
            },
            {"name":"node",
              "type":"dtosk:dr:TaggedStringArray",
              "description":"id of connected nodes. If the list is empty, this means that the foundation is connected directly to the device (fixed device)"
            }    
      ]
  }}