{ "study_id" : 1,

  "network_id" : 1,

  "annual_yield": 20427807398.67,

  "annual_losses": 1472192601.33,

  "annual_efficiency": 93.27,

  "array_voltage": 6600.0,

  "array_cable_total_length": 1630.83,

  "export_voltage": 11000.0,

  "export_cable_total_length": 1065.24,

  "coe_elec": 0.2239,

  "umbilical_cable_total_length": 499.93,

  "total_cost": 4574129.00,

  "configuration": "Radial",

  "floating": true,

  "cable_installation": "Jetting",

  "cable_installation_cost_proxy": 100000,

  "CP_installation_cost_proxy": 100000,

  "histogram_losses": [0.2, 1.8, 4.95, 9.63, 15.8, 23.42, 32.47, 42.91, 54.72, 67.86],

  "histogram_efficiency":[99.8, 99.4, 99.01, 98.62, 98.24, 97.87, 97.5, 97.14, 96.78, 96.43],

  "power_histogram": [0.0, 0.0, 0.0, 0.0, 0.0, 0.0, 0.0, 0.0, 0.0, 100],

  "array_reactive_output": [1.87, 0.79, -1.37, -4.57, -8.8, -14.02, -20.22, -27.38, -35.48, -44.49],

  "array_power_output": [99.8,
                         298.2,
                         495.05,
                         690.37,
                         884.2,
                         1076.58,
                         1267.53,
                         1457.09,
                         1645.28,
                         1832.14],

  "b_o_m_new":{
  "name": {
    "Tot_Array": "Total array network",
    "Tot_Collection_Point": "Total collection point",
    "Tot_Onshore": "Total onshore infrastructure",
    "Tot_Transmission": "Total transmission network"
  },
  "qnt": {
    "Tot_Array": "NA",
    "Tot_Collection_Point": "NA",
    "Tot_Onshore": "NA",
    "Tot_Transmission": "NA"
  },
  "uom": {
    "Tot_Array": "NA",
    "Tot_Collection_Point": "NA",
    "Tot_Onshore": "NA",
    "Tot_Transmission": "NA"
  },
  "unit_cost": {
    "Tot_Array": "NA",
    "Tot_Collection_Point": "NA",
    "Tot_Onshore": "NA",
    "Tot_Transmission": "NA"
  },
  "total_cost": {
    "Tot_Array": 1108189,
    "Tot_Collection_Point": 100000,
    "Tot_Onshore": 0,
    "Tot_Transmission": 706000
  }
},
  "hierarchy_new":{
  "system": [
    "ED",
    "ED",
    "ED",
    "ED",
    "ED",
    "ED",
    "ED",
    "ED",
    "ED",
    "ED",
    "ED",
    "ED",
    "ED",
    "ED",
    "ED",
    "ED",
    "ED",
    "ED"
  ],
  "name_of_node": [
    "ED Subsystem",
    "ED1",
    "ED2",
    "Route1_1",
    "Route2_1",
    "11",
    "6",
    "2",
    "9",
    "4",
    "0",
    "1",
    "12",
    "10",
    "8",
    "7",
    "5",
    "3"
  ],
  "design_id": [
    "NA",
    "NA",
    "NA",
    "NA",
    "NA",
    "11",
    "6",
    "2",
    "9",
    "4",
    "0",
    "1",
    "12",
    "10",
    "8",
    "7",
    "5",
    "3"
  ],
  "node_type": [
    "System",
    "System",
    "System",
    "Energy route",
    "Energy route",
    "Component",
    "Component",
    "Component",
    "Component",
    "Component",
    "Component",
    "Component",
    "Component",
    "Component",
    "Component",
    "Component",
    "Component",
    "Component"
  ],
  "node_subtype": [
    "NA",
    "NA",
    "NA",
    "NA",
    "NA",
    " umbilical",
    " umbilical",
    " passive hub",
    " array",
    " array",
    " export",
    " dry-mate",
    " wet-mate",
    " wet-mate",
    " wet-mate",
    " wet-mate",
    " wet-mate",
    " wet-mate"
  ],
  "category": [
    "Level 3",
    "Level 2",
    "Level 2",
    "Level 1",
    "Level 1",
    "Level 0",
    "Level 0",
    "Level 0",
    "Level 0",
    "Level 0",
    "Level 0",
    "Level 0",
    "Level 0",
    "Level 0",
    "Level 0",
    "Level 0",
    "Level 0",
    "Level 0"
  ],
  "parent": [
    "NA",
    "NA",
    "NA",
    [
      "ED1"
    ],
    [
      "ED2"
    ],
    [
      "Route2_1"
    ],
    [
      "Route1_1",
      "Route2_1"
    ],
    [
      "Route1_1",
      "Route2_1"
    ],
    [
      "Route2_1"
    ],
    [
      "Route1_1",
      "Route2_1"
    ],
    [
      "Route1_1",
      "Route2_1"
    ],
    [
      "Route1_1",
      "Route2_1"
    ],
    [
      "Route2_1"
    ],
    [
      "Route2_1"
    ],
    [
      "Route2_1"
    ],
    [
      "Route1_1",
      "Route2_1"
    ],
    [
      "Route1_1",
      "Route2_1"
    ],
    [
      "Route1_1",
      "Route2_1"
    ]
  ],
  "child": [
    [
      "ED1",
      "ED2"
    ],
    [
      "Route1_1"
    ],
    [
      "Route2_1"
    ],
    [
      "7",
      "6",
      "5",
      "4",
      "3",
      "2",
      "1",
      "0"
    ],
    [
      "12",
      "11",
      "10",
      "9",
      "8",
      "7",
      "6",
      "5",
      "4",
      "3",
      "2",
      "1",
      "0"
    ],
    "NA",
    "NA",
    "NA",
    "NA",
    "NA",
    "NA",
    "NA",
    "NA",
    "NA",
    "NA",
    "NA",
    "NA",
    "NA"
  ],
  "gate_type": [
    "OR",
    "OR",
    "OR",
    "AND",
    "AND",
    "NA",
    "NA",
    "NA",
    "NA",
    "NA",
    "NA",
    "NA",
    "NA",
    "NA",
    "NA",
    "NA",
    "NA",
    "NA"
  ],
  "failure_rate_repair": [
    "NA",
    "NA",
    "NA",
    "NA",
    "NA",
    0.4200829426137176,
    0.4200829426137176,
    2.457042,
    6.12162726832119,
    1.026,
    19.10002255509104,
    5.42244,
    5.42244,
    5.42244,
    5.42244,
    5.42244,
    5.42244,
    5.42244
  ],
  "failure_rate_replacement": [
    "NA",
    "NA",
    "NA",
    "NA",
    "NA",
    0.4200829426137176,
    0.4200829426137176,
    2.457042,
    6.12162726832119,
    1.026,
    19.10002255509104,
    5.42244,
    5.42244,
    5.42244,
    5.42244,
    5.42244,
    5.42244,
    5.42244
  ]
},

  "b_o_m_dict": {"marker": [3, 5, 7, 8, 10, 12, 13, 15, 17, 18, 20, 22, 23, 25, 27, 1, 0, 4, 9, 14, 19, 24, 2, 6, 11, 16, 21, 26],
                 "db ref": [5, 5, 5, 5, 5, 5, 5, 5, 5, 5, 5, 5, 5, 5, 5, 8, 2, 1, 1, 1, 1, 1, 11, 3, 3, 3, 3, 3],
                 "install_type": ["wet-mate", "wet-mate", "wet-mate", "wet-mate", "wet-mate", "wet-mate", "wet-mate", "wet-mate", "wet-mate", "wet-mate", "wet-mate", "wet-mate", "wet-mate", "wet-mate", "wet-mate", "dry-mate", "export", "array", "array", "array", "array", "array", "substation", "umbilical", "umbilical", "umbilical", "umbilical", "umbilical"],
                 "utm_x": [1020.0, 1070.0, 1120.0, 1120.0, 1450.0, 1500.0, 1020.0, 1150.0, 1200.0, 1200.0, 1230.0, 1280.0, 1020.0, 1020.0, 1040.0, 1020.0, "None", "None", "None", "None", "None", "None", 1020.0, "None", "None", "None", "None", "None"],
                 "utm_y": [1360.0, 1460.0, 1510.0, 1510.0, 1640.0, 1690.0, 1360.0, 1150.0, 1100.0, 1100.0, 740.0, 690.0, 1360.0, 1850.0, 1920.0, 1360.0, "None", "None", "None", "None", "None", "None", 1360.0, "None", "None", "None", "None", "None"],
                 "quantity": [1, 1, 1, 1, 1, 1, 1, 1, 1, 1, 1, 1, 1, 1, 1, 1, 1065.2400289945676, 120.71067811865476, 383.84776310850236, 263.84776310850236, 372.42640687119285, 490.0, 1, 99.59292143521043, 99.59292143521043, 99.59292143521043, 99.59292143521043, 101.56524996277022]},

  "collection_point_dict":[
  {
    "marker": 2,
    "db ref": 23,
    "location": [
      595451.7045415622,
      5391879.706434956,
      -50.0
    ],
    "type_": "passive hub",
    "output_connectors": "dry-mate",
    "input_connectors": "wet-mate",
    "v1": 6600,
    "v2": 6600,
    "cost": 1000,
    "failure_rate_repair": 1.5,
    "failure_rate_replacement": 1.5,
    "height": 10,
    "width": 10,
    "length": 10,
    "mass": 100,
    "CP_height_seabed": 70,
    "materials" : [{
      "material_name": "steel",
      "material_quantity": 101.1
    }]
  }
],
  "connectors_dict": [
  {
    "type_": "dry-mate",
    "db_key": 7,
    "marker": 1,
    "utm_x": 1010.0,
    "utm_y": 1250.0,
    "cost": 1000,
    "failure_rate_repair": 1.5,
    "failure_rate_replacement": 1.5,
    "mass": 100.5,
    "height": 10.5,
    "width": 10.5,
    "depth": 10.5,
    "materials" : [{
      "material_name": "steel",
      "material_quantity": 101.1
    }]
  },
  {
    "type_": "wet-mate",
    "db_key": 5,
    "marker": 3,
    "utm_x": 1010.0,
    "utm_y": 1250.0,
    "cost": 1000,
    "failure_rate_repair": 1.5,
    "failure_rate_replacement": 1.5,
    "mass": 100.5,
    "height": 10.5,
    "width": 10.5,
    "depth": 10.5,
    "materials" : [{
      "material_name": "steel",
      "material_quantity": 101.1
    }]
  },
  {
    "type_": "wet-mate",
    "db_key": 5,
    "marker": 5,
    "utm_x": 1020.0,
    "utm_y": 1250.0,
    "cost": 1000,
    "failure_rate_repair": 1.5,
    "failure_rate_replacement": 1.5,
    "mass": 100.5,
    "height": 10.5,
    "width": 10.5,
    "depth": 10.5,
    "materials" : [{
      "material_name": "steel",
      "material_quantity": 101.1
    }]
  },
  {
    "type_": "wet-mate",
    "db_key": 5,
    "marker": 7,
    "utm_x": 1100.0,
    "utm_y": 1250.0,
    "cost": 1000,
    "failure_rate_repair": 1.5,
    "failure_rate_replacement": 1.5,
    "mass": 100.5,
    "height": 10.5,
    "width": 10.5,
    "depth": 10.5,
    "materials" : [{
      "material_name": "steel",
      "material_quantity": 101.1
    }]
  },
  {
    "type_": "wet-mate",
    "db_key": 5,
    "marker": 8,
    "utm_x": 1100.0,
    "utm_y": 1250.0,
    "cost": 1000,
    "failure_rate_repair": 1.5,
    "failure_rate_replacement": 1.5,
    "mass": 100.5,
    "height": 10.5,
    "width": 10.5,
    "depth": 10.5,
    "materials" : [{
      "material_name": "steel",
      "material_quantity": 101.1
    }]
  },
  {
    "type_": "wet-mate",
    "db_key": 5,
    "marker": 10,
    "utm_x": 1220.0,
    "utm_y": 1250.0,
    "cost": 1000,
    "failure_rate_repair": 1.5,
    "failure_rate_replacement": 1.5,
    "mass": 100.5,
    "height": 10.5,
    "width": 10.5,
    "depth": 10.5,
    "materials" : [{
      "material_name": "steel",
      "material_quantity": 101.1
    }]
  },
  {
    "type_": "wet-mate",
    "db_key": 5,
    "marker": 12,
    "utm_x": 1300.0,
    "utm_y": 1250.0,
    "cost": 1000,
    "failure_rate_repair": 1.5,
    "failure_rate_replacement": 1.5,
    "mass": 100.5,
    "height": 10.5,
    "width": 10.5,
    "depth": 10.5,
    "materials" : [{
      "material_name": "steel",
      "material_quantity": 101.1
    }]
  }
],

"umbilical_dict": [
  {
    "marker": 6,
    "db ref": 3,
    "device": "Device002",
    "mass": 100.5,
    "mbr": 1.15,
    "seabed_connection_point": [
      1020.0,
      1250.0,
      -50.0
    ],
    "length": 108.49078301865094,
    "x_coordinates": [
      0.0,
      0.7086264293044503,
      1.4560433039202205,
      2.2464074262308382,
      3.0845084228353437,
      3.9758805003019386,
      4.926929110734274,
      5.945067388686102,
      7.038848398065994,
      8.218061856436815,
      9.493731225112558,
      10.877888301716967,
      12.382905457418524,
      14.020029628403748,
      15.79664175505126,
      17.711868307992326,
      19.750949170053012,
      21.88061270211877,
      24.049672096309234,
      26.19785354694558,
      28.269801351830132,
      30.226203259064473,
      32.334422415506694,
      34.50417981160751,
      36.61932194272532,
      38.58682837463934,
      40.36344050128685,
      41.9465399422066,
      43.35388758311482,
      44.60932952836967,
      45.736037951462734,
      46.75417622941456,
      47.84795723879445,
      49.02717069716527,
      50.30284006584101,
      51.68699714244542,
      53.19201429814698,
      54.829138469132204,
      56.60575059577972,
      58.52097714872078,
      60.56005801078147,
      62.689721542847224,
      64.85878093703768,
      67.0285965974107,
      69.19841225778372,
      71.36822791815673,
      73.53804357852975,
      75.70785923890277,
      77.87767489927579,
      80.04749055964881
    ],
    "z_coordinates": [
      0.0,
      -2.050840945488271,
      -4.0878652495994405,
      -6.108613762939031,
      -8.110034937877113,
      -10.088305854489114,
      -12.038589562208257,
      -13.954703976059706,
      -15.828668517751971,
      -17.650084346056186,
      -19.405295917868095,
      -21.076286398776332,
      -22.63930378864888,
      -24.06335591156291,
      -25.309048229693275,
      -26.328855687456496,
      -27.070643553343942,
      -27.48613511786625,
      -27.543418138684896,
      -27.237777082637262,
      -26.593469474553913,
      -25.655071063765703,
      -25.141736875921133,
      -25.125835867594414,
      -25.609854219695226,
      -26.524741338621357,
      -27.770433656751724,
      -29.25431241196038,
      -30.90581857835216,
      -32.675554581855145,
      -34.52990841252801,
      -36.44602282637946,
      -38.31998736807173,
      -40.14140319637595,
      -41.89661476818786,
      -43.5676052490961,
      -45.130622638968646,
      -46.55467476188267,
      -47.80036708001304,
      -48.82017453777626,
      -49.561962403663706,
      -49.97745396818602,
      -50.034736989004664,
      -50.034736989004664,
      -50.034736989004664,
      -50.034736989004664,
      -50.034736989004664,
      -50.034736989004664,
      -50.034736989004664,
      -50.034736989004664
    ],
    "voltage_rating": 6600.0,
    "current_rating": 180.0,
    "cost": 1000,
    "failure_rate_repair": 1.5,
    "failure_rate_replacement": 1.5,
    "max_device_offset": 15.0,
    "diameter": 10.0,
    "materials" : [{
      "material_name": "steel",
      "material_quantity": 101.1
    }]
  },
  {
    "marker": 11,
    "db ref": 3,
    "mass": 100.5,
    "mbr": 1.15,
    "device": "Device001",
    "seabed_connection_point": [
      1220.0,
      1250.0,
      -50.0
    ],
    "length": 108.49078301865094,
    "x_coordinates": [
      0.0,
      0.7086264293044503,
      1.4560433039202205,
      2.2464074262308382,
      3.0845084228353437,
      3.9758805003019386,
      4.926929110734274,
      5.945067388686102,
      7.038848398065994,
      8.218061856436815,
      9.493731225112558,
      10.877888301716967,
      12.382905457418524,
      14.020029628403748,
      15.79664175505126,
      17.711868307992326,
      19.750949170053012,
      21.88061270211877,
      24.049672096309234,
      26.19785354694558,
      28.269801351830132,
      30.226203259064473,
      32.334422415506694,
      34.50417981160751,
      36.61932194272532,
      38.58682837463934,
      40.36344050128685,
      41.9465399422066,
      43.35388758311482,
      44.60932952836967,
      45.736037951462734,
      46.75417622941456,
      47.84795723879445,
      49.02717069716527,
      50.30284006584101,
      51.68699714244542,
      53.19201429814698,
      54.829138469132204,
      56.60575059577972,
      58.52097714872078,
      60.56005801078147,
      62.689721542847224,
      64.85878093703768,
      67.0285965974107,
      69.19841225778372,
      71.36822791815673,
      73.53804357852975,
      75.70785923890277,
      77.87767489927579,
      80.04749055964881
    ],
    "z_coordinates": [
      0.0,
      -2.050840945488271,
      -4.0878652495994405,
      -6.108613762939031,
      -8.110034937877113,
      -10.088305854489114,
      -12.038589562208257,
      -13.954703976059706,
      -15.828668517751971,
      -17.650084346056186,
      -19.405295917868095,
      -21.076286398776332,
      -22.63930378864888,
      -24.06335591156291,
      -25.309048229693275,
      -26.328855687456496,
      -27.070643553343942,
      -27.48613511786625,
      -27.543418138684896,
      -27.237777082637262,
      -26.593469474553913,
      -25.655071063765703,
      -25.141736875921133,
      -25.125835867594414,
      -25.609854219695226,
      -26.524741338621357,
      -27.770433656751724,
      -29.25431241196038,
      -30.90581857835216,
      -32.675554581855145,
      -34.52990841252801,
      -36.44602282637946,
      -38.31998736807173,
      -40.14140319637595,
      -41.89661476818786,
      -43.5676052490961,
      -45.130622638968646,
      -46.55467476188267,
      -47.80036708001304,
      -48.82017453777626,
      -49.561962403663706,
      -49.97745396818602,
      -50.034736989004664,
      -50.034736989004664,
      -50.034736989004664,
      -50.034736989004664,
      -50.034736989004664,
      -50.034736989004664,
      -50.034736989004664,
      -50.034736989004664
    ],
    "voltage_rating": 6600.0,
    "current_rating": 180.0,
    "cost": 1000,
    "failure_rate_repair": 1.5,
    "failure_rate_replacement": 1.5,
    "max_device_offset": 15.0,
    "diameter": 10.0,
    "materials" : [{
      "material_name": "steel",
      "material_quantity": 101.1
    }]
  }
],
"cable_dict": [
  {
    "marker": 4,
    "db ref": 17,
    "mass": 100.5,
    "mbr": 1.15,
    "burial_depth": [
      1.0,
      1.0,
      1.0,
      1.0,
      1.0,
      1.0,
      1.0
    ],
    "split_pipe": [
      false,
      false,
      false,
      false,
      false,
      false,
      false
    ],
    "cable_mattress": [
      false,
      false,
      false,
      false,
      false,
      false,
      false
    ],
    "current_rating": 180.0,
    "voltage_rating": 33000.0,
    "type_": "array",
    "length": 60.0,
    "cable_x": [
      1010.0,
      1020.0,
      1030.0,
      1040.0,
      1050.0,
      1060.0,
      1070.0
    ],
    "cable_y": [
      1510,
      1510,
      1510,
      1510,
      1510,
      1510,
      1510
    ],
    "layer_1_start": [
      -50,
      -50,
      -50,
      -50,
      -50,
      -50,
      -50
    ],
    "layer_1_type": [
      "loose sand",
      "loose sand",
      "loose sand",
      "loose sand",
      "loose sand",
      "loose sand",
      "loose sand"
    ],
    "cost": 1000,
    "failure_rate_repair": 1.5,
    "failure_rate_replacement": 1.5,
    "materials" : [{
      "material_name": "steel",
      "material_quantity": 101.1
    }],
    "diameter": 10.0
  },
  {
    "marker": 9,
    "db ref": 17,
    "mass": 100.5,
    "mbr": 1.15,
    "burial_depth": [
      1.0,
      1.0,
      1.0,
      1.0,
      1.0,
      1.0,
      1.0,
      1.0,
      1.0,
      1.0,
      1.0,
      1.0,
      1.0,
      1.0,
      1.0,
      1.0,
      1.0,
      1.0,
      1.0,
      1.0,
      1.0,
      1.0,
      1.0,
      1.0,
      1.0,
      1.0,
      1.0,
      1.0,
      1.0,
      1.0,
      1.0
    ],
    "split_pipe": [
      false,
      false,
      false,
      false,
      false,
      false,
      false,
      false,
      false,
      false,
      false,
      false,
      false,
      false,
      false,
      false,
      false,
      false,
      false,
      false,
      false,
      false,
      false,
      false,
      false,
      false,
      false,
      false,
      false,
      false,
      false
    ],
    "cable_mattress": [
      false,
      false,
      false,
      false,
      false,
      false,
      false,
      false,
      false,
      false,
      false,
      false,
      false,
      false,
      false,
      false,
      false,
      false,
      false,
      false,
      false,
      false,
      false,
      false,
      false,
      false,
      false,
      false,
      false,
      false,
      false
    ],
    "current_rating": 180.0,
    "voltage_rating": 33000.0,
    "type_": "array",
    "length": 357.9898987322333,
    "cable_x": [
      1140.0,
      1150.0,
      1160.0,
      1170.0,
      1180.0,
      1190.0,
      1200.0,
      1210.0,
      1220.0,
      1230.0,
      1240.0,
      1250.0,
      1260.0,
      1270.0,
      1280.0,
      1290.0,
      1300.0,
      1310.0,
      1320.0,
      1330.0,
      1340.0,
      1350.0,
      1360.0,
      1370.0,
      1380.0,
      1390.0,
      1400.0,
      1410.0,
      1420.0,
      1430.0,
      1440.0
    ],
    "cable_y": [
      1500,
      1500,
      1500,
      1500,
      1500,
      1500,
      1500,
      1500,
      1500,
      1500,
      1500,
      1500,
      1500,
      1500,
      1500,
      1500,
      1500,
      1510,
      1520,
      1530,
      1540,
      1550,
      1560,
      1570,
      1580,
      1590,
      1600,
      1610,
      1620,
      1630,
      1640
    ],
    "layer_1_start": [
      -50,
      -50,
      -50,
      -50,
      -50,
      -50,
      -50,
      -50,
      -50,
      -50,
      -50,
      -50,
      -50,
      -50,
      -50,
      -50,
      -50,
      -50,
      -50,
      -50,
      -50,
      -50,
      -50,
      -50,
      -50,
      -50,
      -50,
      -50,
      -50,
      -50,
      -50
    ],
    "layer_1_type": [
      "loose sand",
      "loose sand",
      "loose sand",
      "loose sand",
      "loose sand",
      "loose sand",
      "loose sand",
      "loose sand",
      "loose sand",
      "loose sand",
      "loose sand",
      "loose sand",
      "loose sand",
      "loose sand",
      "loose sand",
      "loose sand",
      "loose sand",
      "loose sand",
      "loose sand",
      "loose sand",
      "loose sand",
      "loose sand",
      "loose sand",
      "loose sand",
      "loose sand",
      "loose sand",
      "loose sand",
      "loose sand",
      "loose sand",
      "loose sand",
      "loose sand"
    ],
    "cost": 1000,
    "failure_rate_repair": 1.5,
    "failure_rate_replacement": 1.5,
    "materials" : [{
      "material_name": "steel",
      "material_quantity": 101.1
    }],
    "diameter": 10.0
  },
  {
    "marker": 0,
    "db ref": 17,
    "mass": 100.5,
    "mbr": 1.15,
    "burial_depth": [
      2.0,
      2.0,
      2.0,
      2.0,
      2.0,
      2.0,
      2.0,
      2.0,
      2.0,
      2.0,
      2.0,
      2.0,
      2.0,
      2.0,
      2.0,
      2.0,
      2.0,
      2.0,
      2.0,
      2.0,
      2.0,
      2.0,
      2.0,
      2.0,
      2.0,
      2.0,
      2.0,
      2.0,
      2.0,
      2.0,
      2.0,
      2.0,
      2.0,
      2.0,
      2.0,
      2.0,
      2.0,
      2.0,
      2.0,
      2.0,
      2.0,
      2.0,
      2.0,
      2.0,
      2.0,
      2.0,
      2.0,
      2.0,
      2.0,
      2.0,
      2.0,
      2.0,
      2.0,
      2.0,
      2.0,
      2.0,
      2.0,
      2.0,
      2.0,
      2.0,
      2.0,
      2.0,
      2.0,
      2.0,
      2.0,
      2.0,
      2.0,
      2.0,
      2.0,
      2.0,
      2.0,
      2.0,
      2.0,
      2.0,
      2.0,
      2.0,
      2.0,
      2.0,
      2.0,
      2.0,
      2.0,
      2.0,
      2.0,
      2.0,
      2.0,
      2.0,
      2.0,
      2.0,
      2.0,
      2.0,
      2.0,
      2.0,
      2.0,
      2.0,
      2.0,
      2.0,
      2.0,
      2.0,
      2.0,
      2.0,
      2.0,
      2.0
    ],
    "split_pipe": [
      false,
      false,
      false,
      false,
      false,
      false,
      false,
      false,
      false,
      false,
      false,
      false,
      false,
      false,
      false,
      false,
      false,
      false,
      false,
      false,
      false,
      false,
      false,
      false,
      false,
      false,
      false,
      false,
      false,
      false,
      false,
      false,
      false,
      false,
      false,
      false,
      false,
      false,
      false,
      false,
      false,
      false,
      false,
      false,
      false,
      false,
      false,
      false,
      false,
      false,
      false,
      false,
      false,
      false,
      false,
      false,
      false,
      false,
      false,
      false,
      false,
      false,
      false,
      false,
      false,
      false,
      false,
      false,
      false,
      false,
      false,
      false,
      false,
      false,
      false,
      false,
      false,
      false,
      false,
      false,
      false,
      false,
      false,
      false,
      false,
      false,
      false,
      false,
      false,
      false,
      false,
      false,
      false,
      false,
      false,
      false,
      false,
      false,
      false,
      false,
      false,
      false
    ],
    "cable_mattress": [
      false,
      false,
      false,
      false,
      false,
      false,
      false,
      false,
      false,
      false,
      false,
      false,
      false,
      false,
      false,
      false,
      false,
      false,
      false,
      false,
      false,
      false,
      false,
      false,
      false,
      false,
      false,
      false,
      false,
      false,
      false,
      false,
      false,
      false,
      false,
      false,
      false,
      false,
      false,
      false,
      false,
      false,
      false,
      false,
      false,
      false,
      false,
      false,
      false,
      false,
      false,
      false,
      false,
      false,
      false,
      false,
      false,
      false,
      false,
      false,
      false,
      false,
      false,
      false,
      false,
      false,
      false,
      false,
      false,
      false,
      false,
      false,
      false,
      false,
      false,
      false,
      false,
      false,
      false,
      false,
      false,
      false,
      false,
      false,
      false,
      false,
      false,
      false,
      false,
      false,
      false,
      false,
      false,
      false,
      false,
      false,
      false,
      false,
      false,
      false,
      false,
      false
    ],
    "current_rating": 180.0,
    "voltage_rating": 33000.0,
    "type_": "export",
    "length": 1116.9603833386573,
    "cable_x": [
      0.0,
      10.1010101010101,
      20.2020202020202,
      30.3030303030303,
      40.4040404040404,
      50.50505050505051,
      60.6060606060606,
      70.7070707070707,
      80.8080808080808,
      90.9090909090909,
      101.010101010101,
      111.1111111111111,
      121.2121212121212,
      131.3131313131313,
      141.4141414141414,
      151.5151515151515,
      161.6161616161616,
      171.7171717171717,
      181.8181818181818,
      191.9191919191919,
      202.020202020202,
      212.1212121212121,
      222.2222222222222,
      232.3232323232323,
      242.4242424242424,
      252.5252525252525,
      262.6262626262626,
      272.7272727272727,
      282.8282828282828,
      292.9292929292929,
      303.030303030303,
      313.1313131313131,
      323.2323232323232,
      333.3333333333333,
      343.4343434343434,
      353.5353535353535,
      363.6363636363636,
      373.7373737373737,
      383.8383838383838,
      393.9393939393939,
      404.040404040404,
      414.1414141414141,
      424.2424242424242,
      434.3434343434343,
      444.4444444444444,
      454.5454545454545,
      464.6464646464646,
      474.7474747474747,
      484.8484848484848,
      494.9494949494949,
      505.050505050505,
      515.1515151515151,
      525.2525252525252,
      535.3535353535353,
      545.4545454545454,
      555.5555555555555,
      565.6565656565656,
      575.7575757575758,
      585.8585858585858,
      595.959595959596,
      606.060606060606,
      616.1616161616162,
      626.2626262626262,
      636.3636363636364,
      646.4646464646464,
      656.5656565656565,
      666.6666666666666,
      676.7676767676767,
      686.8686868686868,
      696.9696969696969,
      707.070707070707,
      717.1717171717171,
      727.2727272727273,
      737.3737373737373,
      747.4747474747475,
      757.5757575757575,
      767.6767676767677,
      777.7777777777777,
      787.8787878787879,
      797.9797979797979,
      808.0808080808081,
      818.1818181818181,
      828.2828282828282,
      838.3838383838383,
      848.4848484848484,
      858.5858585858585,
      868.6868686868686,
      878.7878787878788,
      888.8888888888888,
      898.989898989899,
      909.090909090909,
      919.1919191919192,
      929.2929292929292,
      939.3939393939394,
      949.4949494949494,
      959.5959595959596,
      969.6969696969696,
      979.7979797979797,
      989.8989898989898,
      1000.0,
      1000.0,
      1010.0
    ],
    "cable_y": [
      1250,
      1260,
      1270,
      1280,
      1280,
      1290,
      1290,
      1290,
      1290,
      1290,
      1290,
      1290,
      1300,
      1300,
      1300,
      1300,
      1300,
      1300,
      1300,
      1300,
      1300,
      1300,
      1300,
      1300,
      1310,
      1310,
      1310,
      1310,
      1310,
      1310,
      1310,
      1310,
      1310,
      1310,
      1310,
      1310,
      1310,
      1310,
      1310,
      1310,
      1310,
      1320,
      1330,
      1340,
      1350,
      1360,
      1370,
      1380,
      1390,
      1400,
      1410,
      1420,
      1420,
      1420,
      1420,
      1420,
      1420,
      1420,
      1420,
      1420,
      1420,
      1420,
      1420,
      1420,
      1420,
      1420,
      1420,
      1420,
      1420,
      1420,
      1420,
      1420,
      1420,
      1420,
      1420,
      1420,
      1420,
      1420,
      1420,
      1420,
      1420,
      1420,
      1420,
      1420,
      1420,
      1420,
      1420,
      1420,
      1420,
      1420,
      1420,
      1420,
      1430,
      1440,
      1450,
      1460,
      1470,
      1480,
      1490,
      1500,
      1500,
      1510
    ],
    "layer_1_start": [
      -50,
      -50,
      -50,
      -50,
      -50,
      -50,
      -50,
      -50,
      -50,
      -50,
      -50,
      -50,
      -50,
      -50,
      -50,
      -50,
      -50,
      -50,
      -50,
      -50,
      -50,
      -50,
      -50,
      -50,
      -50,
      -50,
      -50,
      -50,
      -50,
      -50,
      -50,
      -50,
      -50,
      -50,
      -50,
      -50,
      -50,
      -50,
      -50,
      -50,
      -50,
      -50,
      -50,
      -50,
      -50,
      -50,
      -50,
      -50,
      -50,
      -50,
      -50,
      -50,
      -50,
      -50,
      -50,
      -50,
      -50,
      -50,
      -50,
      -50,
      -50,
      -50,
      -50,
      -50,
      -50,
      -50,
      -50,
      -50,
      -50,
      -50,
      -50,
      -50,
      -50,
      -50,
      -50,
      -50,
      -50,
      -50,
      -50,
      -50,
      -50,
      -50,
      -50,
      -50,
      -50,
      -50,
      -50,
      -50,
      -50,
      -50,
      -50,
      -50,
      -50,
      -50,
      -50,
      -50,
      -50,
      -50,
      -50,
      -50,
      -50,
      -50
    ],
    "layer_1_type": [
      "loose sand",
      "loose sand",
      "loose sand",
      "loose sand",
      "loose sand",
      "loose sand",
      "loose sand",
      "loose sand",
      "loose sand",
      "loose sand",
      "loose sand",
      "loose sand",
      "loose sand",
      "loose sand",
      "loose sand",
      "loose sand",
      "loose sand",
      "loose sand",
      "loose sand",
      "loose sand",
      "loose sand",
      "loose sand",
      "loose sand",
      "loose sand",
      "loose sand",
      "loose sand",
      "loose sand",
      "loose sand",
      "loose sand",
      "loose sand",
      "loose sand",
      "loose sand",
      "loose sand",
      "loose sand",
      "loose sand",
      "loose sand",
      "loose sand",
      "loose sand",
      "loose sand",
      "loose sand",
      "loose sand",
      "loose sand",
      "loose sand",
      "loose sand",
      "loose sand",
      "loose sand",
      "loose sand",
      "loose sand",
      "loose sand",
      "loose sand",
      "loose sand",
      "loose sand",
      "loose sand",
      "loose sand",
      "loose sand",
      "loose sand",
      "loose sand",
      "loose sand",
      "loose sand",
      "loose sand",
      "loose sand",
      "loose sand",
      "loose sand",
      "loose sand",
      "loose sand",
      "loose sand",
      "loose sand",
      "loose sand",
      "loose sand",
      "loose sand",
      "loose sand",
      "loose sand",
      "loose sand",
      "loose sand",
      "loose sand",
      "loose sand",
      "loose sand",
      "loose sand",
      "loose sand",
      "loose sand",
      "loose sand",
      "loose sand",
      "loose sand",
      "loose sand",
      "loose sand",
      "loose sand",
      "loose sand",
      "loose sand",
      "loose sand",
      "loose sand",
      "loose sand",
      "loose sand",
      "loose sand",
      "loose sand",
      "loose sand",
      "loose sand",
      "loose sand",
      "loose sand",
      "loose sand",
      "loose sand",
      "loose sand",
      "loose sand"
    ],
    "cost": 1000,
    "failure_rate_repair": 1.5,
    "failure_rate_replacement": 1.5,
    "materials" : [{
      "material_name": "steel",
      "material_quantity": 101.1
    }],
    "diameter": 10.0
  }
]
}
