0.0	0.0
0.503313181	0
0.569906809	0.338483064
0.650941155	0.56435756
0.720069168	0.673708387
0.790041976	0.706182845
0.940164735	0.645011748
1.257398559	0.57673381
1.530135431	0.557678397
1.833601732	0.542245043
1.921711238	0.524279944
2.089865097	0.422278835
2.341878085	0.289096861
2.62859368	0.197977771
2.998600808	0.127329127
3	0
3.5	0
5	0