{
    "femgen model": 

        {
            "__name__": "Lines",

            "__description__": "data model representing a catalogue of all type of mooring lines",

            "__type__": "dtosk:catalogue:Lines",
        
            "__properties__": [

                { "name":"catalogue_id",
                  "type": "string",
                  "description":"catalogue ID",
                  "dim":"*"
                },
                { "name":"type",
                    "type": "string",
                    "description":"line type : chain, rope, polyester",
                    "dim":"*"
                },
                { "name":"material",
                    "type": "string",
                    "description":"line material : steel, polyester",
                    "dim":"*"
                },
                { "name":"quality",
                    "type": "string",
                    "description":"line quality (used for chain) : R3,R4",
                    "dim":"*"
                },
                { "name":"diameter",
                    "type": "double",
                    "description":"rope diameter, or chain nominal diameter",
                    "dim":"*"
                },
                { "name":"weight_in_air",
                    "type": "double",
                    "description":"weight per meter in air [kg/m]",
                    "dim":"*"
                },
                { "name":"weight_in_water",
                    "type": "double",
                    "description":"weight per meter in water [kg/m]",
                    "dim":"*"
                },
                { "name":"mbl",
                    "type": "double",
                    "description":"breaking load [N]",
                    "dim":"*"
                },
                { "name":"ea",
                    "type": "double",
                    "description":"elasticity of the line [N]",
                    "dim":"*"
                },
                { "name":"cost_per_meter",
                    "type": "double",
                    "description":"cost per meter line [euros/m]",
                    "dim":"*"
                },
                { "name":"ad",
                    "type": "double",
                    "description":"intercept parameter of the S-N curve, where the stress is given in [MPa]",
                    "dim":"*"
                },
                { "name":"m",
                    "type": "double",
                    "description":"slope of the S-N curve",
                    "dim":"*"
                },
                { "name":"failure_rate_repair",
                    "type": "double",
                    "description":"failure rate repair of the line",
                    "dim":"*"
                },
                { "name":"failure_rate_replacement",
                    "type": "double",
                    "description":"failure rate replacement of the line",
                    "dim":"*"
                }       
        ]
    }
}