{
    "femgen model": 

        {
            "__name__": "Cylinder",

            "__description__": "data model representing a cylinder",

            "__type__": "dtosk:entity:geometry:Cylinder",
        
            "__properties__": [

                { "name":"diameter",
                  "type": "double",
				          "description": "cylinder diameter"
                },
                { "name":"length",
                  "type": "double",
				          "description": "cylinder length"
                }                
        ]
    }
}