{
    "__type__": "foundations:DragAnchor",
    "name": "none",
    "description": "",
    "z_ap": 0.0,
    "moor_V_min": 0.0,
    "moor_V_max": 0.0,
    "moor_H_x": 3.0,
    "moor_H_y": 4.0,
    "moor_M_x": 0.0,
    "moor_M_y": 0.0,
    "anchor_id": "anchor_n_1",
    "soil_type": "soft",
    "u_shear_strenght": 20000.0,
    "int_friction_angle": 0.0,
    "h_max": 5.0,
    "uhc": 9.0,
    "footprint": 22262.4988824982,
    "weight": 0.21681561831530338,
    "dim_a": 135.51128423092993,
    "dim_b": 164.2852033234356,
    "dim_ef": 98.16181522975295,
    "catalogue": {
        "__type__": "foundations:AnchorCatalogue",
        "name": "none",
        "description": "",
        "anchor_1": "anchor_n_1",
        "anchor_2": "anchor_n_2",
        "m_soft_soil_1": 37.739,
        "m_soft_soil_2": 40.15,
        "b_soft_soil_1": 0.9377,
        "b_soft_soil_2": 0.9002,
        "m_mid_soil_1": 37.739,
        "m_mid_soil_2": 56.245,
        "b_mid_soil_1": 0.9377,
        "b_mid_soil_2": 0.9082,
        "m_stiff_soil_sand_1": 48.511,
        "m_stiff_soil_sand_2": 67.843,
        "b_stiff_soil_sand_1": 0.9286,
        "b_stiff_soil_sand_2": 0.9101,
        "m_A_1": 226.49,
        "m_A_2": 258.01,
        "b_A_1": 0.336,
        "b_A_2": 0.3333,
        "m_B_1": 274.54,
        "m_B_2": 278.06,
        "b_B_1": 0.3359,
        "b_B_2": 0.3334,
        "m_EF_1": 164.04,
        "m_EF_2": 155.07,
        "b_EF_1": 0.3359,
        "b_EF_2": 0.3334,
        "Rel_soft_soil_1": 1,
        "Rel_soft_soil_2": 3,
        "Rel_mid_soil_1": 3,
        "Rel_mid_soil_2": 1,
        "Rel_stiff_soil_sand_1": 3,
        "Rel_stiff_soil_sand_2": 1
    }
}