{
    "__type__": "dtosk:outputs:EnvironmentalImpactResults",
    "name": "SK-Environmental_Impact",
    "description": "",
    "farm": {
        "__type__": "dtosk:outputs:EnvironmentalImpact",
        "name": "none",
        "description": "environmental impact of the farm from mooring and foundations [m2]",
        "footprint": 215964.50557754186,
        "submerged_surface": 830.3191672712449,
        "material_quantity_list": [
            {
                "__type__": "dtosk:outputs:MaterialQuantity",
                "name": "none",
                "description": "",
                "material_name": "steel",
                "material_quantity": 312588.64879567665
            }
        ]
    },
    "devices": [
        {
            "__type__": "dtosk:outputs:EnvironmentalImpact",
            "name": "none",
            "description": "",
            "footprint": 215964.50557754186,
            "submerged_surface": 830.3191672712449,
            "material_quantity_list": [
                {
                    "__type__": "dtosk:outputs:MaterialQuantity",
                    "name": "none",
                    "description": "",
                    "material_name": "steel",
                    "material_quantity": 312588.64879567665
                }
            ]
        }
    ]
}
