{
    "femgen model": 

        {
            "__name__": "LineTypeData",

            "__description__": "data model representing a line type in Map++",

            "__type__": "dtosk:mooring:LineTypeData",
        
            "__properties__": [

                { "name":"line_type_name",
                  "type": "string",
                  "description": "Line type name"
                },
                { "name":"material",
                  "type": "string",
                  "value":"undefined",
                  "description": "Material of the line"
                },
                { "name":"type",
                  "type": "string",
                  "description": "Type of line: chain, rope, polyester"
                },
                { "name":"quality",
                  "type": "string",
                  "description":"line quality (used for chain) : R3,R4"
                },
                { "name":"catalogue_id",
                  "type": "string",
                  "value":"none",
                  "description": "Catalogue id"
                },
                { "name":"diameter",
                  "type": "double",
                  "description": "Line diameter [m]. For chains: nominal diameter."
                },
                { "name":"diameter_fls",
                  "type": "double",
                  "value":"0.0",
                  "description": "Line diameter used for stress computation in FLS analysis [m]. Used to take into account the effect of corrosion. For chains: nominal diameter."
                },
                { "name":"weight_in_air",
                  "type": "double",
                  "description": "Mass density in air [kg/m]"
                },
                { "name":"weight_in_water",
                  "type": "double",
                  "description": "Mass density in water [kg/m]"
                }, 
                { "name":"ea",
                  "type": "double",
                  "description": "Element axial stiffness [N]"
                },
                { "name":"cb",
                  "type": "double",
                  "value": "1.0",
                  "description": "Cable/seabed friction coefficient [-]"
                },
                { "name":"mbl",
                  "type": "double",
                  "description": "Breaking load [N]"
                },
                { "name":"mbl_uls",
                  "type": "double",
                  "value":"0.0",
                  "description": "Minimum Breaking load used for ULS analysis[N]. Used to take into account the effect of corrosion."
                },
                { "name":"cost_per_meter",
                  "type": "double",
                  "description": "Cost per meter in euros"
                },
                { "name":"ad",
                  "type": "double",
                  "description":"intercept parameter of the S-N curve, where the stress is given in [MPa]"
                },
                { "name":"m",
                    "type": "double",
                    "description":"slope of the S-N curve"
                },
                { "name":"failure_rate_repair",
                    "type": "double",
                    "description":"failure rate repair of the line"
                },
                { "name":"failure_rate_replacement",
                    "type": "double",
                    "description":"failure rate replacement of the line"
                }
        ]
    }
}