{
  "consumer": {
    "name": "rams"
  },
  "provider": {
    "name": "sk"
  },
  "interactions": [
    {
      "description": "a request for hierarchy",
      "providerState": "sk 1 exists and has hierarchy",
      "request": {
        "method": "GET",
        "path": "/sk/1/hierarchy",
        "matchingRules": {
          "$.path": {
            "match": "regex",
            "regex": "\\/sk\\/\\d+\\/hierarchy"
          }
        }
      },
      "response": {
        "status": 200,
        "headers": {
        },
        "body": {
          "system": [
            "SK",
            "SK",
            "SK",
            "SK",
            "SK",
            "SK",
            "SK",
            "SK",
            "SK",
            "SK",
            "SK"
          ],
          "name_of_node": [
            "SK0_x",
            "SK0_x_ml_0_seg_0",
            "SK0_x_ml_0_anchor_n_2_0",
            "SK0_x_ml_0",
            "SK0_x_ml_1_seg_0",
            "SK0_x_ml_1_anchor_n_2_0",
            "SK0_x_ml_1",
            "SK0_x_ml_2_seg_0",
            "SK0_x_ml_2_anchor_n_2_0",
            "SK0_x_ml_2",
            "SK0"
          ],
          "design_id": [
            "NA",
            "SK0_x_ml_0_seg_0",
            "SK0_x_ml_0_anchor_n_2_0",
            "NA",
            "SK0_x_ml_1_seg_0",
            "SK0_x_ml_1_anchor_n_2_0",
            "NA",
            "SK0_x_ml_2_seg_0",
            "SK0_x_ml_2_anchor_n_2_0",
            "NA",
            "NA"
          ],
          "node_type": [
            "System",
            "Component",
            "Component",
            "System",
            "Component",
            "Component",
            "System",
            "Component",
            "Component",
            "System",
            "System"
          ],
          "node_subtype": [
            "stationkeeping",
            "line_segment",
            "anchor",
            "mooring_line",
            "line_segment",
            "anchor",
            "mooring_line",
            "line_segment",
            "anchor",
            "mooring_line",
            "stationkeeping"
          ],
          "category": [
            "Level 2",
            "Level 0",
            "Level 0",
            "Level 1",
            "Level 0",
            "Level 0",
            "Level 1",
            "Level 0",
            "Level 0",
            "Level 1",
            "Level 3"
          ],
          "parent": [
            "NA",
            "SK0_x_ml_0",
            "SK0_x_ml_0",
            "SK0_x",
            "SK0_x_ml_1",
            "SK0_x_ml_1",
            "SK0_x",
            "SK0_x_ml_2",
            "SK0_x_ml_2",
            "SK0_x",
            "NA"
          ],
          "child": [
            [
              "SK0_x_ml_0",
              "SK0_x_ml_1",
              "SK0_x_ml_2"
            ],
            [
                "NA"
            ],
            [
                "NA"
            ],
            [
                "SK0_x_ml_0_seg_0",
                "SK0_x_ml_0_anchor_n_2_0"
            ],
            [
                "NA"
            ],
            [
                "NA"
            ],
            [
                "SK0_x_ml_1_seg_0",
                "SK0_x_ml_1_anchor_n_2_0"
            ],
            [
                "NA"
            ],
            [
                "NA"
            ],
            [
                "SK0_x_ml_2_seg_0",
                "SK0_x_ml_2_anchor_n_2_0"
            ],
            [
                "SK0_x"
            ]
          ],
          "gate_type": [
            "AND",
            "NA",
            "NA",
            "AND",
            "NA",
            "NA",
            "AND",
            "NA",
            "NA",
            "AND",
            "AND"
          ],
          "failure_rate_repair": [
            "NA",
            "NA",
            "NA",
            "NA",
            "NA",
            "NA",
            "NA",
            "NA",
            "NA",
            "NA",
            "NA"
          ],
          "failure_rate_replacement": [
            "NA",
            "NA",
            "0.000278",
            "NA",
            "NA",
            "0.000278",
            "NA",
            "NA",
            "0.000278",
            "NA",
            "NA"
          ]
        },
        "matchingRules": {
          "$.body": {
            "match": "type"
          }
        }
      }
    },
    {
      "description": "a request for stress",
      "providerState": "sk 1 exists and has stress",
      "request": {
        "method": "GET",
        "path": "/sk/1/design_assessment",
        "matchingRules": {
          "$.path": {
            "match": "regex",
            "regex": "\\/sk\\/\\d+\\/design_assessment"
          }
        }
      },
      "response": {
        "status": 200,
        "headers": {
        },
        "body": {
          "devices": [
            {
              "uls_results": {
                "mooring_tension": [
                  [
                    [
                      [
                        37435.35787709276,
                        64419.65516736676
                      ],
                      [
                        37435.35787709276,
                        64419.65516736676
                      ],
                      [
                        37435.35787709276,
                        64419.65516736676
                      ]
                    ]
                  ]
                ],
                "tension_versus_mbl": [
                  [
                    [
                      0.01751654091243178,
                      0.017516540783813574,
                      0.020824072813175522
                    ]
                  ]
                ],
                "mbl_uls": [
                  9650000.0,
                  9650000.0,
                  9650000.0
                ]
              },
              "fls_results": {
                "cdf_stress_range": [
                  [
                    0.03530433733043322
                  ]
                ],
                "cdf": [
                  [
                    0.07928831669580277
                  ]
                ],
                "ad": [
                  60000000000.0
                ],
                "m": [
                  3.0
                ],
                "n_cycles_lifetime": [
                  95559948.11638647
                ]
              }
            }
          ],
          "master_structure": {
            "uls_results": {
              "mooring_tension": [
                [
                  [
                    [
                      0.0
                    ]
                  ]
                ]
              ],
              "mbl_uls": [
                9650000.0
              ]
            }
          }
        },
        "matchingRules": {
          "$.body": {
            "match": "type"
          }
        }
      }
    }
  ],
  "metadata": {
    "pactSpecification": {
      "version": "2.0.0"
    }
  }
}