{
  "femgen model": 

      {
          "__name__": "FoundationInputs",

          "__description__": "data model for input data needed to perform the foundation design",

          "__type__": "dtosk:foundations:inputs:FoundationInputs",
      
          "__properties__": [
              
            { "name":"soil_type",
              "type":"string",
              "decription": "very_soft_clay, soft_clay, firm_clay, stiff_clay, very_stiff_clay, hard_clay, very_loose_sand, loose_sand, medium_dense_sand, dense_sand, very_dense_sand, gravels_pebbles, custom"},

            {"name": "user_foundation_pref",
              "type":"string",
              "description":"foundation user preference for fixed systems, gravity or pile, for moored systems, gravity, pile, drag anchor, suction caisson, foundation can be determine by dto using evaluation when soil is different from user" },

            {"name": "soil_properties_sf",
              "type":"string",
              "description":"user or default, default value is 1.3 (DNV)"},
            
            {"name": "soil_properties_sf_value",
              "type":"double",
              "value": 1.3,
              "description":"default value is 1.3 from DNV"},
            
            {"name": "foundation_material",
              "type":"string",
              "value": "concrete",
              "description":"user definition only for gravity solution"},
            
            {"name": "foundation_material_density",
              "type":"double",
              "value": 2400,
              "description":"user definiton only for gravity foundation default value is for concrete "},
            
            {"name": "soil_type_def",
              "type":"string",
              "description":"user definition only for soil_type equal to user, cohesive or cohesionless "},

            {"name": "undrained_shear_strength",
              "type": "double",
              "value": 0.0,
              "description":"user definition only for soil_type_def equal to cohesive in Pa"},
            
            {"name": "int_friction_angle",
              "type": "double",
              "value": 0.0,
              "description":"angle de frottement interne du soil in °, user value required if soil_type_def equal to cohesionless"},
             
            {"name":"sand_dr",
              "type": "double",
              "value":0,
              "description":"relative density of sand no units, user value required if soil_type_def equal to cohesionless "},

            {"name": "g_b",
             "type":"double",
             "description":"soil bouyant weight in kgm-3, user definition only for soil_type equal to user " },
            
            {"name": "soil_slope",
            "type":"double",
            "value": 0,
            "description":"soil slope, user definition from site characterisation" },

            {"name":"pile_tip",
              "type": "string",
              "value": "open_end",
              "description": "pile tip description, user value required when user_foundation_pref equal to pile, open_end or closed_end "},

              {  "name":"pile_length_above_seabed",
                "type": "double",
                "value":"0.0",
                "description":"Pile length above seabed (typically >=0 for a pile foundation, =0 for a pile anchor)."},
                
            {"name":"deflection_criteria_for_pile",
              "type": "double",
              "value": 0.0,
              "description": "deflection criterium for pile design, user value required when user_foundation_pref equal to pile" },
            
            {"name": "slope_class",
             "type":"string",
             "description":"soil slope, steep >= 10° or moderate < 10°" },
            
            {"name":"seabed_connection_type",
             "type": "string",
             "description":"fixed or moored"},

            {"name":"geometry_pref",
             "type": "string",
             "description":"geometry of the device; rectangular, lx, ly or cylinder, lr"},        
                
            {"name": "main_load_direction",
             "type": "string",
             "description":"main load direction: gravity, uplift, horizontal"},


            {"name": "loads_from_mooring",
             "type": "double",
             "dim":"*",
             "description":"loads vector and application point"},
            
            {"name":"dist_attachment_pa",
             "type": "double",
             "value":0,
             "description":"distance of the pile load attachement point above the seafloor default value 0"}

        ]     
  } 
  
}