{
    "femgen model": 
  
        {
            "__name__": "GravityFoundation",
  
            "__description__": "data model for input data needed to perform the gravity foundation design",
  
            "__type__": "dtosk:foundations:foundationdesign:GravityFoundation",
        
            "__properties__": [

              {"name": "base_lx",
                "type": "double",
                "description":"Width of the foundation - direction with less overturning moment"},
  
              {"name": "base_ly",
                "type": "double",
                "description":"length of the foundation - direction with the bigger overturning moment"},
              
              {"name": "base_radius",
                "type": "double",
                "description":"radius of the foundation for cylinder geometry"},

              {"name": "base_r1",
                "type": "double",
                "description":"radius of the first contact point foundation for contact points geometry",
                "unit": "m"},

              {"name": "base_r2",
                "type": "double",
                "description":"radius of the second contact point foundation for contact points geometry",
                "unit": "m"},

              {"name": "base_r3",
                "type": "double",
                "description":"radius of the third contact point foundation for contact points geometry",
                "unit": "m"},

              {"name": "base_alpha01",
                "type": "double",
                "description":"Absolute angle between X-axis and first contact point foundation for contact points geometry",
                "unit": "deg"},

              {"name": "base_alpha12",
                "type": "double",
                "description":"angle between the first and second contact points foundation for contact points geometry",
                "unit": "deg"},

              {"name": "base_alpha23",
                "type": "double",
                "description":"angle between the second and third contact points foundation for contact points geometry",
                "unit": "deg"},

              {"name": "contact_points_mass",
                "type": "double",
                "description":"mass of the contact points foundation"},
              
              {"name": "device_radius",
               "type": "double",
               "description":"device raidus when cylinder geometry"},

              {"name": "u_shear_strenght",
                "type": "double",
                "value": 0.0,
                "description":"undrained shear strenght for cohessive soils"},

              {"name": "bearing_capacity",
                "type": "double",
                "decription": "vertical bearing capacity of soil"},

              {"name": "friction_resistance",
                "type": "double",
                "decription": "horizontal resistance of the foundation"},

              {"name": "n_iterations_max",
               "type": "double",
                "value": 500,
                "decription": "maximal number of iterations"},

              {"name": "int_friction_angle_d",
                "type": "double",
                "value": 0.0,
                "description":"internal friction angle for design"},
  
              {"name": "u_shear_strenght_d",
               "type": "double",
               "value": 0.0,
               "description":"undrained shear strenght for design"},

              {"name": "overturning_resitance_y",
               "type": "double",
               "description":"overturning moment on the length side"},

              {"name": "overturning_resitance_x",
               "type": "double",
               "description":"overturning moment on the length side"},

              {"name": "geometry_pref",
               "type": "string",
               "description":" user input - geometry preference, cylinder, rectangular or contact_points"},
                  
              {"name": "ecc_x",
               "type": "double",
               "description":" eccentricity on the x axis"},

              {"name": "ecc_y",
               "type": "double",
               "description":" eccentricity on the y axis"},

              {"name": "ecc_r",
               "type": "double",
               "description":" radial eccentricity for ciruclar foundations"},

              {"name": "eff_area",
               "type": "double",
               "description":" radial eccentricity for ciruclar foundations"},

              {"name": "material",
               "type": "string",
               "description":" material for shallow foundation concrete or steel"},
                   
              {"name": "theta",
               "type": "double",
               "description":" angle between the line of action of H and the long axis of the foundation on the horizontal plane"},

              {"name": "eff_lx",
               "type": "double",
               "description":" effective length of the effective area"},

              {"name": "eff_ly",
               "type": "double",
               "description":" effective length of the effective area"},

              {"name": "thickness",
               "type": "double",
               "value": 0.30,
               "description":" foundation thickness initial value equal to 30 cm" },

              {"name": "material_density",
               "type": "double",
               "description":" material density "},

                {"name": "qc",
                 "type": "double",
                 "description":"bearing capacity stress for cohesion "},

                {"name": "qq",
                 "type": "double",
                 "description":"bearing capacity stress for overburden"},

                {"name": "qg",
                 "type": "double",
                 "description":"bearing capacity stress for friction "},

                {"name": "g_b",
                 "type": "double",
                 "description":"bouyant unit weight "},

                {"name": "sliding_resistance",
                 "type": "double",
                "description":"depth of embedment of foundation"}, 
                
                {"name": "slope",
                 "type": "double",
                 "description":"soil slope"}, 

                {"name": "found_weight",
                 "type": "double",
                 "description":"vertical load for sliding resistance"},

                {"name": "f_soil_surf",
                 "type": "double",
                 "description":"footprint"}, 

                {"name": "V_min_load",
                 "type": "double",
                 "description":"Minimal vertical load"},

                {"name": "device_weight",
                 "type": "double",
                 "description":"device weight"},

                {"name": "thickness_max",
                 "type": "double",
                 "description":"maximal thickness"},  

                {"name": "Fn_bc",
                 "type": "double",
                 "description":"Load desing to verify bearing capacity"},

                {"name": "Fn_sr",
                 "type": "double",
                 "description":"Load desing to verify sliding resistance"},

                {"name": "Fh_sr",
                 "type": "double",
                 "description":"Load desing to verify sliding resistance"},

                {"name": "SF",
                 "type": "double",
                 "value": 1,
                 "description":"SF for sliding and bearing capacity resistance"},   

                {"name": "stabm_r",
                 "type": "double",
                 "description":"radial resistant moment "},      

                {"name": "stabm_x",
                 "type": "double",
                 "description":"resistant moment"},

                {"name": "stabm_y",
                 "type": "double",
                 "description":"resistant moment"},

                {"name": "Om_r",
                 "type": "double",
                 "description":"radial overturning  moment "},

                {"name": "Om_x",
                 "type": "double",
                 "description":"overturning  moment x"}, 

                {"name": "Om_y",
                 "type": "double",
                 "description":"overturning moment y"},

                {"name": "z_ap",
                 "type": "double",
                 "description":"high of application point of loads"},
                
                 
                {"name":"moor_V_min",
                 "type": "double",
                 "description":"maximal moroing vertical upward load transfert to foundation"},
       
                {"name":"moor_V_max",
                 "type": "double",
                 "description":"maximal mooring vertical downard load transfert to foundation"},
                   
                {"name":"moor_H_x",
                 "type": "double",
                 "description":"maximal mooring horizontal x load transfert to foundation"},
                   
                {"name":"moor_H_y",
                 "type": "double",
                 "description":"maximal mooring horizontal y load transfert to foundation"},
                   
                {"name":"moor_M_x",
                 "type": "double",
                 "description":"maximal mooring horizontal x load transfert to foundation"},
                      
                {"name":"moor_M_y",
                 "type": "double",
                 "description":"maximal mooring horizontal y load transfert to foundation"},
                  
                {"name":"seabed_connection_type",
                 "type": "string",
                 "description":"fixed or moored"},

                {"name":"criteria_bearing_capacity",
                  "type": "boolean",
                  "value": "False",
                  "description":"Bearing capacity criterion. True or False"
                },
                {"name":"criteria_stability",
                  "type": "boolean",
                  "value": "False",
                  "description":"Stability criterion. True or False"
                },
                {"name":"criteria_sliding_resistance",
                  "type": "boolean",
                  "value": "False",
                  "description":"Sliding resistance criterion. True or False"
                }
                
                

        ]
    }}