{"moderate":{
    "shallow":1,
    "gravity":1,
    "pile":1,
    "dirembedment":1,
    "drag":1,
    "suctioncaisson":1},
 "steep":{
    "shallow":100,
    "gravity":100,
    "pile":2,
    "dirembedment":1,
    "drag":100,
    "suctioncaisson":2}
}