{
    "femgen model": 

        {
            "__name__": "FoundationOutput",

            "__description__": "data model representing a design of foundation or anchor as an output",

            "__type__": "dtosk:outputs:FoundationOutput",
        
            "__properties__": [

              { "name":"foundation_type",
                "type": "string",
                "description":"pile, gravity, drag_anchor, suction_caisson"
              },
              { "name":"drag_anchor_design",
                "type": "dtosk:foundations:foundationdesign:DragAnchors",
                "description":"design of drag anchor"
              },
              { "name":"gravity_foundation_design",
                "type": "dtosk:foundations:foundationdesign:GravityFoundation",
                "description":"design of gravity foundation (or anchor)"
              },
              { "name":"pile_foundation_design",
                "type": "dtosk:foundations:foundationdesign:PileFoundation",
                "description":"design of pile foundation (or anchor)"
              },
              { "name":"suction_caisson_design",
                "type": "dtosk:foundations:foundationdesign:SuctionCaisson",
                "description":"design of suction caisson"
              },
              { "name":"n_anchors",
                "type": "int",
                "description":"number of anchors or foundations for this device"
              },
              { "name":"unit_cost",
                "type": "double",
                "unit":"€",
                "description":"cost of one anchor/foundation for this device"
              },
              { "name":"cost_per_kilo",
                "type": "double",
                "unit":"€/kg",
                "description":"cost per kilo the anchor/foundation for this device"
              }                         
        ]
    }
}