{
    "femgen model": 
  
        {
            "__name__": "HierarchyData",
  
            "__description__": "Physical properties of the nodes present in the hierarchy",
  
            "__type__": "dtosk:outputs:HierarchyData",
        
            "__properties__": [
              
              {"name":"anchor_list",
                "type":"dtosk:outputs:HierarchyDataSeabedConnection",
                "description":"object that contains physical properties of the anchors present in the hierarchy",
                "dim":"*"
              },
              {"name":"foundation_list",
                "type":"dtosk:outputs:HierarchyDataSeabedConnection",
                "description":"object that contains physical properties of the foundations present in the hierarchy",
                "dim":"*"
              },
              {"name":"line_segment_list",
                "type":"dtosk:outputs:HierarchyDataMooringLine",
                "description":"object that contains physical properties of the mooring line segment present in the hierarchy",
                "dim":"*"
              }                                             
        ]
    }}