{
    "femgen model": 

        {
            "__name__": "DragCoeffCyl",

            "__description__": "data model representing drag coefficients for a cylinder",

            "__type__": "dtosk:forceModel:DragCoeffCyl",
        
            "__properties__": [

                { "name":"coef",
                    "type": "double",
                    "description":"Drag coefficients for a cylinder. 2D table with 4 columns: (reynolds number,smooth,rough 1e-5,rough 1e-2)",
                    "dim":"*,*"
                }             
        ]
    }
}