{
    "femgen model": 

        {
            "__name__": "MeanWaveDriftForce",

            "__description__": "data model representing steady force from mean wave drift force",

            "__type__": "dtosk:forceModel:MeanWaveDriftForce",
        
            "__properties__": [

                { "name":"wave_drift_coef_rect",
                    "type": "dtosk:forceModel:WaveDriftCoeffRect",
                    "description":"Mean wave drift coefficients. (Remery, Hermans, 1971, valid for a barge with draft/water depth ratio of 0.175)"
                }          
        ]
    }
}