{
    "femgen model": 

        {
            "__name__": "WindCoeffRect",

            "__description__": "data model representing drag coefficients for a rectangular box",

            "__type__": "dtosk:forceModel:WindCoeffRect",
        
            "__properties__": [

                { "name":"coef",
                    "type": "double",
                    "description":"Wind coefficients for a rectangular box. 2D table with 7 columns for 7 values of height/breadth: <1, 1, 2, 4, 6, 10, 20 ",
                    "dim":"*,*"
                }             
        ]
    }
}