{
    "femgen model": 

        {
            "__name__": "WindForce",

            "__description__": "data model representing steady force from wind on dry part of the body",

            "__type__": "dtosk:forceModel:WindForce",
        
            "__properties__": [

                { "name":"drag_coef_cyl",
                    "type": "dtosk:forceModel:DragCoeffCyl",
                    "description":"Wind coefficients for a cylinder."
                },
                { "name":"drag_coef_rect",
                    "type": "dtosk:forceModel:WindCoeffRect",
                    "description":"Wind coefficients for a rectangle. (DNV-RP-C205 Table 5-5, October 2010)"
                }              
        ]
    }
}